﻿[
  {
    "movies": {
      "identity": 37,
      "labels": [
        "Movie"
      ],
      "properties": {
        "title": "Jerry Maguire",
        "tagline": "The rest of his life begins now.",
        "released": 2000
      }
    }
  },
  {
    "movies": {
      "identity": 121,
      "labels": [
        "Movie"
      ],
      "properties": {
        "title": "Speed Racer",
        "tagline": "Speed has no limits",
        "released": 2008
      }
    }
  },
  {
    "movies": {
      "identity": 121,
      "labels": [
        "Movie"
      ],
      "properties": {
        "title": "Speed Racer",
        "tagline": "Speed has no limits",
        "released": 2008
      }
    }
  },
  {
    "movies": {
      "identity": 154,
      "labels": [
        "Movie"
      ],
      "properties": {
        "title": "Something's Gotta Give",
        "released": 2003
      }
    }
  }
]