﻿[
  {
    "(directors.name)": "Tom Tykwer"
  },
  {
    "(directors.name)": "Lana Wachowski"
  },
  {
    "(directors.name)": "Lilly Wachowski"
  },
  {
    "(directors.name)": "James Marshall"
  }
]